[
    {
        "id": 1,
        "name": "Product 1",
        "description": "Must start with a number or lowercase letter, and can contain numbers (0-9), lowercase letters (a-z),",
        "product_id": "com.waaps.game.1",
        "image": "/assets/imgs/game1.png",
        "price": 50
    },
    {
        "id": 2,
        "name": "Product 2",
        "description": "Must start with a number or lowercase letter, and can contain numbers (0-9), lowercase letters (a-z),",
        "product_id": "com.waaps.game.2",
        "image": "/assets/imgs/game2.png",
        "price": 50
    },
    {
        "id": 3,
        "name": "Product 3",
        "description": "Must start with a number or lowercase letter, and can contain numbers (0-9), lowercase letters (a-z),",
        "product_id": "com.waaps.game.3",
        "image": "/assets/imgs/game3.png",
        "price": 50
    },
    {
        "id": 4,
        "name": "Product 4",
        "description": "Must start with a number or lowercase letter, and can contain numbers (0-9), lowercase letters (a-z),",
        "product_id": "com.waaps.game.4",
        "image": "/assets/imgs/game4.png",
        "price": 50
    },
    {
        "id": 5,
        "name": "Product 5",
        "description": "Must start with a number or lowercase letter, and can contain numbers (0-9), lowercase letters (a-z),",
        "product_id": "com.waaps.game.5",
        "image": "/assets/imgs/game5.jpg",
        "price": 50
    },
    {
        "id": 6,
        "name": "Product 6",
        "description": "Must start with a number or lowercase letter, and can contain numbers (0-9), lowercase letters (a-z),",
        "product_id": "com.waaps.game.6",
        "image": "/assets/imgs/game6.jpg",
        "price": 50
    },
    {
        "id": 7,
        "name": "Product 7",
        "description": "Must start with a number or lowercase letter, and can contain numbers (0-9), lowercase letters (a-z),",
        "product_id": "com.waaps.game.7",
        "image": "/assets/imgs/game7.jpg",
        "price": 50
    },
    {
        "id": 8,
        "name": "Product 8",
        "description": "Must start with a number or lowercase letter, and can contain numbers (0-9), lowercase letters (a-z),",
        "product_id": "com.waaps.game.8",
        "image": "/assets/imgs/game8.jpg",
        "price": 50
    }
]
